Blatt_04/4.1/c_d/testbench.vcd
$date
  Fri Nov 12 13:35:35 2021
$end
$version
  GHDL v0
$end
$timescale
  1 fs
$end
$scope module standard $end
$upscope $end
$scope module std_logic_1164 $end
$upscope $end
$scope module mux81_tb $end
$var reg 3 ! sel_81[2:0] $end
$var reg 3 " a[2:0] $end
$var reg 3 # b[2:0] $end
$var reg 3 $ c[2:0] $end
$var reg 3 % d[2:0] $end
$var reg 3 & e[2:0] $end
$var reg 3 ' f[2:0] $end
$var reg 3 ( g[2:0] $end
$var reg 3 ) h[2:0] $end
$var reg 3 * i[2:0] $end
$scope module multiplex $end
$var reg 3 + i1_81[2:0] $end
$var reg 3 , i2_81[2:0] $end
$var reg 3 - i3_81[2:0] $end
$var reg 3 . i4_81[2:0] $end
$var reg 3 / i5_81[2:0] $end
$var reg 3 0 i6_81[2:0] $end
$var reg 3 1 i7_81[2:0] $end
$var reg 3 2 i8_81[2:0] $end
$var reg 3 3 sel_81[2:0] $end
$var reg 3 4 y_81[2:0] $end
$var reg 1 5 not_sel2 $end
$var reg 2 6 sel41[1:0] $end
$var reg 3 7 mux_out1[2:0] $end
$var reg 3 8 mux_out2[2:0] $end
$var reg 3 9 and_out1[2:0] $end
$var reg 3 : and_out2[2:0] $end
$var reg 3 ; or_out[2:0] $end
$scope module tmp $end
$var reg 1 < input1 $end
$var reg 1 = not_result $end
$var reg 1 > tmp $end
$upscope $end
$scope module mux_output1 $end
$var reg 3 ? i1[2:0] $end
$var reg 3 @ i2[2:0] $end
$var reg 3 A i3[2:0] $end
$var reg 3 B i4[2:0] $end
$var reg 2 C sel[1:0] $end
$var reg 3 D y[2:0] $end
$var reg 2 E not_sel[1:0] $end
$var reg 3 F and_out1[2:0] $end
$var reg 3 G and_out2[2:0] $end
$var reg 3 H and_out3[2:0] $end
$var reg 3 I and_out4[2:0] $end
$var reg 3 J or_out[2:0] $end
$scope module tmp1 $end
$var reg 1 K input1 $end
$var reg 1 L not_result $end
$var reg 1 M tmp $end
$upscope $end
$scope module tmp2 $end
$var reg 1 N input1 $end
$var reg 1 O not_result $end
$var reg 1 P tmp $end
$upscope $end
$scope module and_gate_assignment(0) $end
$scope module and_output1 $end
$var reg 1 Q input1 $end
$var reg 1 R input2 $end
$var reg 1 S input3 $end
$var reg 1 T and_result $end
$var reg 1 U and_gate $end
$upscope $end
$scope module and_output2 $end
$var reg 1 V input1 $end
$var reg 1 W input2 $end
$var reg 1 X input3 $end
$var reg 1 Y and_result $end
$var reg 1 Z and_gate $end
$upscope $end
$scope module and_output3 $end
$var reg 1 [ input1 $end
$var reg 1 \ input2 $end
$var reg 1 ] input3 $end
$var reg 1 ^ and_result $end
$var reg 1 _ and_gate $end
$upscope $end
$scope module and_output4 $end
$var reg 1 ` input1 $end
$var reg 1 a input2 $end
$var reg 1 b input3 $end
$var reg 1 c and_result $end
$var reg 1 d and_gate $end
$upscope $end
$scope module or_output $end
$var reg 1 e input1 $end
$var reg 1 f input2 $end
$var reg 1 g input3 $end
$var reg 1 h input4 $end
$var reg 1 i or_result $end
$var reg 1 j or_gate $end
$upscope $end
$upscope $end
$scope module and_gate_assignment(1) $end
$scope module and_output1 $end
$var reg 1 k input1 $end
$var reg 1 l input2 $end
$var reg 1 m input3 $end
$var reg 1 n and_result $end
$var reg 1 o and_gate $end
$upscope $end
$scope module and_output2 $end
$var reg 1 p input1 $end
$var reg 1 q input2 $end
$var reg 1 r input3 $end
$var reg 1 s and_result $end
$var reg 1 t and_gate $end
$upscope $end
$scope module and_output3 $end
$var reg 1 u input1 $end
$var reg 1 v input2 $end
$var reg 1 w input3 $end
$var reg 1 x and_result $end
$var reg 1 y and_gate $end
$upscope $end
$scope module and_output4 $end
$var reg 1 z input1 $end
$var reg 1 { input2 $end
$var reg 1 | input3 $end
$var reg 1 } and_result $end
$var reg 1 !" and_gate $end
$upscope $end
$scope module or_output $end
$var reg 1 "" input1 $end
$var reg 1 #" input2 $end
$var reg 1 $" input3 $end
$var reg 1 %" input4 $end
$var reg 1 &" or_result $end
$var reg 1 '" or_gate $end
$upscope $end
$upscope $end
$scope module and_gate_assignment(2) $end
$scope module and_output1 $end
$var reg 1 (" input1 $end
$var reg 1 )" input2 $end
$var reg 1 *" input3 $end
$var reg 1 +" and_result $end
$var reg 1 ," and_gate $end
$upscope $end
$scope module and_output2 $end
$var reg 1 -" input1 $end
$var reg 1 ." input2 $end
$var reg 1 /" input3 $end
$var reg 1 0" and_result $end
$var reg 1 1" and_gate $end
$upscope $end
$scope module and_output3 $end
$var reg 1 2" input1 $end
$var reg 1 3" input2 $end
$var reg 1 4" input3 $end
$var reg 1 5" and_result $end
$var reg 1 6" and_gate $end
$upscope $end
$scope module and_output4 $end
$var reg 1 7" input1 $end
$var reg 1 8" input2 $end
$var reg 1 9" input3 $end
$var reg 1 :" and_result $end
$var reg 1 ;" and_gate $end
$upscope $end
$scope module or_output $end
$var reg 1 <" input1 $end
$var reg 1 =" input2 $end
$var reg 1 >" input3 $end
$var reg 1 ?" input4 $end
$var reg 1 @" or_result $end
$var reg 1 A" or_gate $end
$upscope $end
$upscope $end
$upscope $end
$scope module mux_output2 $end
$var reg 3 B" i1[2:0] $end
$var reg 3 C" i2[2:0] $end
$var reg 3 D" i3[2:0] $end
$var reg 3 E" i4[2:0] $end
$var reg 2 F" sel[1:0] $end
$var reg 3 G" y[2:0] $end
$var reg 2 H" not_sel[1:0] $end
$var reg 3 I" and_out1[2:0] $end
$var reg 3 J" and_out2[2:0] $end
$var reg 3 K" and_out3[2:0] $end
$var reg 3 L" and_out4[2:0] $end
$var reg 3 M" or_out[2:0] $end
$scope module tmp1 $end
$var reg 1 N" input1 $end
$var reg 1 O" not_result $end
$var reg 1 P" tmp $end
$upscope $end
$scope module tmp2 $end
$var reg 1 Q" input1 $end
$var reg 1 R" not_result $end
$var reg 1 S" tmp $end
$upscope $end
$scope module and_gate_assignment(0) $end
$scope module and_output1 $end
$var reg 1 T" input1 $end
$var reg 1 U" input2 $end
$var reg 1 V" input3 $end
$var reg 1 W" and_result $end
$var reg 1 X" and_gate $end
$upscope $end
$scope module and_output2 $end
$var reg 1 Y" input1 $end
$var reg 1 Z" input2 $end
$var reg 1 [" input3 $end
$var reg 1 \" and_result $end
$var reg 1 ]" and_gate $end
$upscope $end
$scope module and_output3 $end
$var reg 1 ^" input1 $end
$var reg 1 _" input2 $end
$var reg 1 `" input3 $end
$var reg 1 a" and_result $end
$var reg 1 b" and_gate $end
$upscope $end
$scope module and_output4 $end
$var reg 1 c" input1 $end
$var reg 1 d" input2 $end
$var reg 1 e" input3 $end
$var reg 1 f" and_result $end
$var reg 1 g" and_gate $end
$upscope $end
$scope module or_output $end
$var reg 1 h" input1 $end
$var reg 1 i" input2 $end
$var reg 1 j" input3 $end
$var reg 1 k" input4 $end
$var reg 1 l" or_result $end
$var reg 1 m" or_gate $end
$upscope $end
$upscope $end
$scope module and_gate_assignment(1) $end
$scope module and_output1 $end
$var reg 1 n" input1 $end
$var reg 1 o" input2 $end
$var reg 1 p" input3 $end
$var reg 1 q" and_result $end
$var reg 1 r" and_gate $end
$upscope $end
$scope module and_output2 $end
$var reg 1 s" input1 $end
$var reg 1 t" input2 $end
$var reg 1 u" input3 $end
$var reg 1 v" and_result $end
$var reg 1 w" and_gate $end
$upscope $end
$scope module and_output3 $end
$var reg 1 x" input1 $end
$var reg 1 y" input2 $end
$var reg 1 z" input3 $end
$var reg 1 {" and_result $end
$var reg 1 |" and_gate $end
$upscope $end
$scope module and_output4 $end
$var reg 1 }" input1 $end
$var reg 1 !# input2 $end
$var reg 1 "# input3 $end
$var reg 1 ## and_result $end
$var reg 1 $# and_gate $end
$upscope $end
$scope module or_output $end
$var reg 1 %# input1 $end
$var reg 1 &# input2 $end
$var reg 1 '# input3 $end
$var reg 1 (# input4 $end
$var reg 1 )# or_result $end
$var reg 1 *# or_gate $end
$upscope $end
$upscope $end
$scope module and_gate_assignment(2) $end
$scope module and_output1 $end
$var reg 1 +# input1 $end
$var reg 1 ,# input2 $end
$var reg 1 -# input3 $end
$var reg 1 .# and_result $end
$var reg 1 /# and_gate $end
$upscope $end
$scope module and_output2 $end
$var reg 1 0# input1 $end
$var reg 1 1# input2 $end
$var reg 1 2# input3 $end
$var reg 1 3# and_result $end
$var reg 1 4# and_gate $end
$upscope $end
$scope module and_output3 $end
$var reg 1 5# input1 $end
$var reg 1 6# input2 $end
$var reg 1 7# input3 $end
$var reg 1 8# and_result $end
$var reg 1 9# and_gate $end
$upscope $end
$scope module and_output4 $end
$var reg 1 :# input1 $end
$var reg 1 ;# input2 $end
$var reg 1 <# input3 $end
$var reg 1 =# and_result $end
$var reg 1 ># and_gate $end
$upscope $end
$scope module or_output $end
$var reg 1 ?# input1 $end
$var reg 1 @# input2 $end
$var reg 1 A# input3 $end
$var reg 1 B# input4 $end
$var reg 1 C# or_result $end
$var reg 1 D# or_gate $end
$upscope $end
$upscope $end
$upscope $end
$scope module and_or_gate_assignment(0) $end
$scope module and_output1 $end
$var reg 1 E# input1 $end
$var reg 1 F# input2 $end
$var reg 1 G# and_2_result $end
$var reg 1 H# and_gate $end
$upscope $end
$scope module and_output2 $end
$var reg 1 I# input1 $end
$var reg 1 J# input2 $end
$var reg 1 K# and_2_result $end
$var reg 1 L# and_gate $end
$upscope $end
$scope module or_output $end
$var reg 1 M# input1 $end
$var reg 1 N# input2 $end
$var reg 1 O# or_2_result $end
$var reg 1 P# or_gate $end
$upscope $end
$upscope $end
$scope module and_or_gate_assignment(1) $end
$scope module and_output1 $end
$var reg 1 Q# input1 $end
$var reg 1 R# input2 $end
$var reg 1 S# and_2_result $end
$var reg 1 T# and_gate $end
$upscope $end
$scope module and_output2 $end
$var reg 1 U# input1 $end
$var reg 1 V# input2 $end
$var reg 1 W# and_2_result $end
$var reg 1 X# and_gate $end
$upscope $end
$scope module or_output $end
$var reg 1 Y# input1 $end
$var reg 1 Z# input2 $end
$var reg 1 [# or_2_result $end
$var reg 1 \# or_gate $end
$upscope $end
$upscope $end
$scope module and_or_gate_assignment(2) $end
$scope module and_output1 $end
$var reg 1 ]# input1 $end
$var reg 1 ^# input2 $end
$var reg 1 _# and_2_result $end
$var reg 1 `# and_gate $end
$upscope $end
$scope module and_output2 $end
$var reg 1 a# input1 $end
$var reg 1 b# input2 $end
$var reg 1 c# and_2_result $end
$var reg 1 d# and_gate $end
$upscope $end
$scope module or_output $end
$var reg 1 e# input1 $end
$var reg 1 f# input2 $end
$var reg 1 g# or_2_result $end
$var reg 1 h# or_gate $end
$upscope $end
$upscope $end
$upscope $end
$upscope $end
$enddefinitions $end
#0
bUUU !
b000 "
b001 #
b010 $
b011 %
b100 &
b101 '
b110 (
b111 )
bUUU *
b000 +
b001 ,
b010 -
b011 .
b100 /
b101 0
b110 1
b111 2
bUUU 3
bUUU 4
U5
bUU 6
b0UU 7
bUUU 8
b0UU 9
bUUU :
bUUU ;
U<
U=
U>
b000 ?
b001 @
b010 A
b011 B
bUU C
b0UU D
bUU E
b000 F
b00U G
b0U0 H
b0UU I
b0UU J
UK
UL
UM
UN
UO
UP
UQ
UR
0S
0T
0U
UV
UW
1X
UY
UZ
U[
U\
0]
0^
0_
U`
Ua
1b
Uc
Ud
0e
Uf
0g
Uh
Ui
Uj
Uk
Ul
0m
0n
0o
Up
Uq
0r
0s
0t
Uu
Uv
1w
Ux
Uy
Uz
U{
1|
U}
U!"
0""
0#"
U$"
U%"
U&"
U'"
U("
U)"
0*"
0+"
0,"
U-"
U."
0/"
00"
01"
U2"
U3"
04"
05"
06"
U7"
U8"
09"
0:"
0;"
0<"
0="
0>"
0?"
0@"
0A"
b100 B"
b101 C"
b110 D"
b111 E"
bUU F"
bUUU G"
bUU H"
bU00 I"
bU0U J"
bUU0 K"
bUUU L"
bUUU M"
UN"
UO"
UP"
UQ"
UR"
US"
UT"
UU"
0V"
0W"
0X"
UY"
UZ"
1["
U\"
U]"
U^"
U_"
0`"
0a"
0b"
Uc"
Ud"
1e"
Uf"
Ug"
0h"
Ui"
0j"
Uk"
Ul"
Um"
Un"
Uo"
0p"
0q"
0r"
Us"
Ut"
0u"
0v"
0w"
Ux"
Uy"
1z"
U{"
U|"
U}"
U!#
1"#
U##
U$#
0%#
0&#
U'#
U(#
U)#
U*#
U+#
U,#
1-#
U.#
U/#
U0#
U1#
12#
U3#
U4#
U5#
U6#
17#
U8#
U9#
U:#
U;#
1<#
U=#
U>#
U?#
U@#
UA#
UB#
UC#
UD#
UE#
UF#
UG#
UH#
UI#
UJ#
UK#
UL#
UM#
UN#
UO#
UP#
UQ#
UR#
US#
UT#
UU#
UV#
UW#
UX#
UY#
UZ#
U[#
U\#
0]#
U^#
0_#
0`#
Ua#
Ub#
Uc#
Ud#
0e#
Uf#
Ug#
Uh#
#10000000
b000 !
b000 *
b000 3
b000 4
15
b00 6
b000 7
b100 8
b000 9
b000 :
b000 ;
0<
1=
1>
b00 C
b000 D
b11 E
b000 G
b000 H
b000 I
b000 J
0K
1L
1M
0N
1O
1P
1Q
1R
0V
1W
0Y
0Z
1[
0\
0`
0a
0c
0d
0f
0h
0i
0j
1k
1l
0p
1q
1u
0v
0x
0y
0z
0{
0}
0!"
0$"
0%"
0&"
0'"
1("
1)"
0-"
1."
12"
03"
07"
08"
b00 F"
b100 G"
b11 H"
b100 I"
b000 J"
b000 K"
b000 L"
b100 M"
0N"
1O"
1P"
0Q"
1R"
1S"
1T"
1U"
0Y"
1Z"
0\"
0]"
1^"
0_"
0c"
0d"
0f"
0g"
0i"
0k"
0l"
0m"
1n"
1o"
0s"
1t"
1x"
0y"
0{"
0|"
0}"
0!#
0##
0$#
0'#
0(#
0)#
0*#
1+#
1,#
1.#
1/#
00#
11#
03#
04#
15#
06#
08#
09#
0:#
0;#
0=#
0>#
1?#
0@#
0A#
0B#
1C#
1D#
0E#
1F#
0G#
0H#
0I#
0J#
0K#
0L#
0M#
0N#
0O#
0P#
0Q#
1R#
0S#
0T#
0U#
0V#
0W#
0X#
0Y#
0Z#
0[#
0\#
1^#
1a#
0b#
0c#
0d#
0f#
0g#
0h#
#20000000
b010 !
b010 *
b010 3
b010 4
b10 6
b010 7
b110 8
b010 9
b010 ;
b10 C
b010 D
b01 E
b010 H
b010 J
1N
0O
0P
0R
0W
1\
1a
0l
0q
1v
1x
1y
1{
1$"
1&"
1'"
0)"
0."
13"
18"
b10 F"
b110 G"
b01 H"
b000 I"
b110 K"
b110 M"
1Q"
0R"
0S"
0U"
0Z"
1_"
1d"
0o"
0t"
1y"
1{"
1|"
1!#
1'#
1)#
1*#
0,#
0.#
0/#
01#
16#
18#
19#
1;#
0?#
1A#
1Q#
1S#
1T#
1U#
1Y#
1[#
1\#
#30000000
b001 !
b001 *
b001 3
b001 4
b01 6
b001 7
b101 8
b001 9
b001 ;
b01 C
b001 D
b10 E
b001 G
b000 H
b001 J
1K
0L
0M
0N
1O
1P
0Q
1R
1V
1W
1Y
1Z
0[
0\
1`
0a
1f
1i
1j
0k
1l
1p
1q
0u
0v
0x
0y
1z
0{
0$"
0&"
0'"
0("
1)"
1-"
1."
02"
03"
17"
08"
b01 F"
b101 G"
b10 H"
b101 J"
b000 K"
b101 M"
1N"
0O"
0P"
0Q"
1R"
1S"
0T"
1U"
1Y"
1Z"
1\"
1]"
0^"
0_"
1c"
0d"
1i"
1l"
1m"
0n"
1o"
1s"
1t"
0x"
0y"
0{"
0|"
1}"
0!#
0'#
0)#
0*#
0+#
1,#
10#
11#
13#
14#
05#
06#
08#
09#
1:#
0;#
1@#
0A#
1C#
1D#
1E#
1G#
1H#
1I#
1M#
1O#
1P#
0Q#
0S#
0T#
0U#
0Y#
0[#
0\#
1a#
#40000000
b011 !
b011 *
b011 3
b011 4
b11 6
b011 7
b111 8
b011 9
b011 ;
b11 C
b011 D
b00 E
b000 G
b011 I
b011 J
1N
0O
0P
0R
0W
0Y
0Z
1\
1a
1c
1d
0f
1h
0l
0q
1v
1{
1}
1!"
1%"
1&"
1'"
0)"
0."
13"
18"
b11 F"
b111 G"
b00 H"
b000 J"
b111 L"
b111 M"
1Q"
0R"
0S"
0U"
0Z"
0\"
0]"
1_"
1d"
1f"
1g"
0i"
1k"
0o"
0t"
1y"
1!#
1##
1$#
1(#
1)#
1*#
0,#
01#
03#
04#
16#
1;#
1=#
1>#
0@#
1B#
1Q#
1S#
1T#
1U#
1Y#
1[#
1\#
#50000000
b100 !
b100 *
b100 3
b100 4
05
b00 6
b000 7
b100 8
b000 9
b100 :
b100 ;
1<
0=
0>
b00 C
b000 D
b11 E
b000 I
b000 J
0K
1L
1M
0N
1O
1P
1Q
1R
0V
1W
1[
0\
0`
0a
0c
0d
0h
0i
0j
1k
1l
0p
1q
1u
0v
0z
0{
0}
0!"
0%"
0&"
0'"
1("
1)"
0-"
1."
12"
03"
07"
08"
b00 F"
b100 G"
b11 H"
b100 I"
b000 L"
b100 M"
0N"
1O"
1P"
0Q"
1R"
1S"
1T"
1U"
0Y"
1Z"
1^"
0_"
0c"
0d"
0f"
0g"
0k"
0l"
0m"
1n"
1o"
0s"
1t"
1x"
0y"
0}"
0!#
0##
0$#
0(#
0)#
0*#
1+#
1,#
1.#
1/#
00#
11#
15#
06#
0:#
0;#
0=#
0>#
1?#
0B#
1C#
1D#
0E#
0F#
0G#
0H#
0I#
1J#
0K#
0L#
0M#
0N#
0O#
0P#
0Q#
0R#
0S#
0T#
0U#
1V#
0W#
0X#
0Y#
0Z#
0[#
0\#
0^#
1a#
1b#
1c#
1d#
1f#
1g#
1h#
#60000000
b110 !
b110 *
b110 3
b110 4
b10 6
b010 7
b110 8
b110 :
b110 ;
b10 C
b010 D
b01 E
b010 H
b010 J
1N
0O
0P
0R
0W
1\
1a
0l
0q
1v
1x
1y
1{
1$"
1&"
1'"
0)"
0."
13"
18"
b10 F"
b110 G"
b01 H"
b000 I"
b110 K"
b110 M"
1Q"
0R"
0S"
0U"
0Z"
1_"
1d"
0o"
0t"
1y"
1{"
1|"
1!#
1'#
1)#
1*#
0,#
0.#
0/#
01#
16#
18#
19#
1;#
0?#
1A#
1Q#
1U#
1W#
1X#
1Z#
1[#
1\#
#70000000
b101 !
b101 *
b101 3
b101 4
b01 6
b001 7
b101 8
b101 :
b101 ;
b01 C
b001 D
b10 E
b001 G
b000 H
b001 J
1K
0L
0M
0N
1O
1P
0Q
1R
1V
1W
1Y
1Z
0[
0\
1`
0a
1f
1i
1j
0k
1l
1p
1q
0u
0v
0x
0y
1z
0{
0$"
0&"
0'"
0("
1)"
1-"
1."
02"
03"
17"
08"
b01 F"
b101 G"
b10 H"
b101 J"
b000 K"
b101 M"
1N"
0O"
0P"
0Q"
1R"
1S"
0T"
1U"
1Y"
1Z"
1\"
1]"
0^"
0_"
1c"
0d"
1i"
1l"
1m"
0n"
1o"
1s"
1t"
0x"
0y"
0{"
0|"
1}"
0!#
0'#
0)#
0*#
0+#
1,#
10#
11#
13#
14#
05#
06#
08#
09#
1:#
0;#
1@#
0A#
1C#
1D#
1E#
1I#
1K#
1L#
1N#
1O#
1P#
0Q#
0U#
0W#
0X#
0Z#
0[#
0\#
1a#
1c#
1d#
1f#
1g#
1h#
#80000000
b111 !
b111 *
b111 3
b111 4
b11 6
b011 7
b111 8
b111 :
b111 ;
b11 C
b011 D
b00 E
b000 G
b011 I
b011 J
1N
0O
0P
0R
0W
0Y
0Z
1\
1a
1c
1d
0f
1h
0l
0q
1v
1{
1}
1!"
1%"
1&"
1'"
0)"
0."
13"
18"
b11 F"
b111 G"
b00 H"
b000 J"
b111 L"
b111 M"
1Q"
0R"
0S"
0U"
0Z"
0\"
0]"
1_"
1d"
1f"
1g"
0i"
1k"
0o"
0t"
1y"
1!#
1##
1$#
1(#
1)#
1*#
0,#
01#
03#
04#
16#
1;#
1=#
1>#
0@#
1B#
1Q#
1U#
1W#
1X#
1Z#
1[#
1\#
